{
	"inputs" : 
	[
		{
			"path" : "CMakeLists.txt"
		},
		{
			"isExternal" : true,
			"path" : "C:/Qt/Tools/QtCreator/share/qtcreator/package-manager/auto-setup.cmake"
		},
		{
			"isGenerated" : true,
			"path" : "C:/Users/Asus/Desktop/esercizi_2_pcs/esercizi/project_PCS/build-C++-Desktop_x86_windows_msvc2017_pe_64bit-Debug/CMakeFiles/3.21.1/CMakeSystem.cmake"
		},
		{
			"isCMake" : true,
			"isExternal" : true,
			"path" : "C:/Qt/Tools/CMake_64/share/cmake-3.21/Modules/CMakeSystemSpecificInitialize.cmake"
		},
		{
			"isGenerated" : true,
			"path" : "C:/Users/Asus/Desktop/esercizi_2_pcs/esercizi/project_PCS/build-C++-Desktop_x86_windows_msvc2017_pe_64bit-Debug/CMakeFiles/3.21.1/CMakeCXXCompiler.cmake"
		},
		{
			"isCMake" : true,
			"isExternal" : true,
			"path" : "C:/Qt/Tools/CMake_64/share/cmake-3.21/Modules/CMakeSystemSpecificInformation.cmake"
		},
		{
			"isCMake" : true,
			"isExternal" : true,
			"path" : "C:/Qt/Tools/CMake_64/share/cmake-3.21/Modules/CMakeGenericSystem.cmake"
		},
		{
			"isCMake" : true,
			"isExternal" : true,
			"path" : "C:/Qt/Tools/CMake_64/share/cmake-3.21/Modules/CMakeInitializeConfigs.cmake"
		},
		{
			"isCMake" : true,
			"isExternal" : true,
			"path" : "C:/Qt/Tools/CMake_64/share/cmake-3.21/Modules/Platform/Windows.cmake"
		},
		{
			"isCMake" : true,
			"isExternal" : true,
			"path" : "C:/Qt/Tools/CMake_64/share/cmake-3.21/Modules/Platform/WindowsPaths.cmake"
		},
		{
			"isCMake" : true,
			"isExternal" : true,
			"path" : "C:/Qt/Tools/CMake_64/share/cmake-3.21/Modules/CMakeCXXInformation.cmake"
		},
		{
			"isCMake" : true,
			"isExternal" : true,
			"path" : "C:/Qt/Tools/CMake_64/share/cmake-3.21/Modules/CMakeLanguageInformation.cmake"
		},
		{
			"isCMake" : true,
			"isExternal" : true,
			"path" : "C:/Qt/Tools/CMake_64/share/cmake-3.21/Modules/Compiler/GNU-CXX.cmake"
		},
		{
			"isCMake" : true,
			"isExternal" : true,
			"path" : "C:/Qt/Tools/CMake_64/share/cmake-3.21/Modules/Compiler/GNU.cmake"
		},
		{
			"isCMake" : true,
			"isExternal" : true,
			"path" : "C:/Qt/Tools/CMake_64/share/cmake-3.21/Modules/Compiler/CMakeCommonCompilerMacros.cmake"
		},
		{
			"isCMake" : true,
			"isExternal" : true,
			"path" : "C:/Qt/Tools/CMake_64/share/cmake-3.21/Modules/Platform/Windows-GNU-CXX.cmake"
		},
		{
			"isCMake" : true,
			"isExternal" : true,
			"path" : "C:/Qt/Tools/CMake_64/share/cmake-3.21/Modules/Platform/Windows-GNU.cmake"
		},
		{
			"isGenerated" : true,
			"path" : "C:/Users/Asus/Desktop/esercizi_2_pcs/esercizi/project_PCS/build-C++-Desktop_x86_windows_msvc2017_pe_64bit-Debug/CMakeFiles/3.21.1/CMakeRCCompiler.cmake"
		},
		{
			"isCMake" : true,
			"isExternal" : true,
			"path" : "C:/Qt/Tools/CMake_64/share/cmake-3.21/Modules/CMakeRCInformation.cmake"
		},
		{
			"isCMake" : true,
			"isExternal" : true,
			"path" : "C:/Qt/Tools/CMake_64/share/cmake-3.21/Modules/Platform/Windows-windres.cmake"
		},
		{
			"isCMake" : true,
			"isExternal" : true,
			"path" : "C:/Qt/Tools/CMake_64/share/cmake-3.21/Modules/Platform/Windows-GNU-CXX-ABI.cmake"
		},
		{
			"isCMake" : true,
			"isExternal" : true,
			"path" : "C:/Qt/Tools/CMake_64/share/cmake-3.21/Modules/CMakeCommonLanguageInclude.cmake"
		},
		{
			"isCMake" : true,
			"isExternal" : true,
			"path" : "C:/Qt/Tools/CMake_64/share/cmake-3.21/Modules/FindThreads.cmake"
		},
		{
			"isCMake" : true,
			"isExternal" : true,
			"path" : "C:/Qt/Tools/CMake_64/share/cmake-3.21/Modules/CheckLibraryExists.cmake"
		},
		{
			"isCMake" : true,
			"isExternal" : true,
			"path" : "C:/Qt/Tools/CMake_64/share/cmake-3.21/Modules/CheckIncludeFileCXX.cmake"
		},
		{
			"isCMake" : true,
			"isExternal" : true,
			"path" : "C:/Qt/Tools/CMake_64/share/cmake-3.21/Modules/CheckCXXSourceCompiles.cmake"
		},
		{
			"isCMake" : true,
			"isExternal" : true,
			"path" : "C:/Qt/Tools/CMake_64/share/cmake-3.21/Modules/Internal/CheckSourceCompiles.cmake"
		},
		{
			"isCMake" : true,
			"isExternal" : true,
			"path" : "C:/Qt/Tools/CMake_64/share/cmake-3.21/Modules/FindPackageHandleStandardArgs.cmake"
		},
		{
			"isCMake" : true,
			"isExternal" : true,
			"path" : "C:/Qt/Tools/CMake_64/share/cmake-3.21/Modules/FindPackageMessage.cmake"
		},
		{
			"isCMake" : true,
			"isExternal" : true,
			"path" : "C:/Qt/Tools/CMake_64/share/cmake-3.21/Modules/GoogleTest.cmake"
		}
	],
	"kind" : "cmakeFiles",
	"paths" : 
	{
		"build" : "C:/Users/Asus/Desktop/esercizi_2_pcs/esercizi/project_PCS/build-C++-Desktop_x86_windows_msvc2017_pe_64bit-Debug",
		"source" : "C:/Users/Asus/Desktop/esercizi_2_pcs/esercizi/project_PCS/C++"
	},
	"version" : 
	{
		"major" : 1,
		"minor" : 0
	}
}
