{
	"configurations" : 
	[
		{
			"directories" : 
			[
				{
					"build" : ".",
					"jsonFile" : "directory-.-Debug-d0094a50bb2071803777.json",
					"minimumCMakeVersion" : 
					{
						"string" : "3.10"
					},
					"projectIndex" : 0,
					"source" : ".",
					"targetIndexes" : 
					[
						0
					]
				}
			],
			"name" : "Debug",
			"projects" : 
			[
				{
					"directoryIndexes" : 
					[
						0
					],
					"name" : "empty",
					"targetIndexes" : 
					[
						0
					]
				}
			],
			"targets" : 
			[
				{
					"directoryIndex" : 0,
					"id" : "empty::@6890427a1f51a3e7e1df",
					"jsonFile" : "target-empty-Debug-a0d0f5fdaf7251d0e500.json",
					"name" : "empty",
					"projectIndex" : 0
				}
			]
		}
	],
	"kind" : "codemodel",
	"paths" : 
	{
		"build" : "C:/Users/Asus/Desktop/esercizi_2_pcs/esercizi/project_PCS/build-C++-Desktop_x86_windows_msvc2017_pe_64bit-Debug",
		"source" : "C:/Users/Asus/Desktop/esercizi_2_pcs/esercizi/project_PCS/C++"
	},
	"version" : 
	{
		"major" : 2,
		"minor" : 3
	}
}
